Comparative methods in the tidyverse
…
## Discrete traits:  D1 D2 
## The following traits have missing values: XNA1 
## These taxa were dropped from the tree: s51, s52, s53, s54, s55, s56, s57, s58, s59, s60 
## These taxa were dropped from the data: s41, s42, s43, s44, s45, s46, s47, s48, s49, s50 
## $phy 
## 
## Phylogenetic tree with 40 tips and 39 internal nodes.
## 
## Tip labels:
##  s1, s2, s3, s4, s5, s6, ...
## 
## Rooted; includes branch lengths.
## 
## $dat 
## # A tibble: 40 x 8
##        X     X1      X2     X3 D1       D2    D3  XNA1
##    <int>  <dbl>   <dbl>  <dbl> <fct> <int> <dbl> <dbl>
##  1     1 -0.543 -1.91   -0.177 World     1   0.3    NA
##  2     2  1.21   1.18    0.402 Hello     0   2.3    NA
##  3     3  1.16  -1.66   -0.732 World     0   2.3    NA
##  4     4  0.700 -0.464   0.830 World     0   0.3    NA
##  5     5  1.59  -1.12   -1.21  World     0   0.3    NA
##  6     6  0.558 -0.751  -1.05  World     0   0.3    NA
##  7     7 -1.28   2.09    1.44  Hello     0   1.3    NA
##  8     8 -0.573  0.0174 -1.02  Hello     0   1.3    NA
##  9     9 -1.22  -1.29    0.412 World     0   2.3    NA
## 10    10 -0.473 -1.64   -0.381 Hello     1   1.3    NA
## #  with 30 more rows
…
## Discrete traits:  D1 
## The following traits have missing values:  
## These taxa were dropped from the tree: s51, s52, s53, s54, s55, s56, s57, s58, s59, s60 
## These taxa were dropped from the data: s41, s42, s43, s44, s45, s46, s47, s48, s49, s50 
## $phy 
## 
## Phylogenetic tree with 40 tips and 39 internal nodes.
## 
## Tip labels:
##  s1, s2, s3, s4, s5, s6, ...
## 
## Rooted; includes branch lengths.
## 
## $dat 
## # A tibble: 40 x 2
##        X1 D1   
##     <dbl> <fct>
##  1 -0.543 World
##  2  1.21  Hello
##  3  1.16  World
##  4  0.700 World
##  5  1.59  World
##  6  0.558 World
##  7 -1.28  Hello
##  8 -0.573 Hello
##  9 -1.22  World
## 10 -0.473 Hello
## #  with 30 more rows
…
## Discrete traits:   
## The following traits have missing values:  
## These taxa were dropped from the tree: s51, s52, s53, s54, s55, s56, s57, s58, s59, s60 
## These taxa were dropped from the data: s41, s42, s43, s44, s45, s46, s47, s48, s49, s50 
## $phy 
## 
## Phylogenetic tree with 40 tips and 39 internal nodes.
## 
## Tip labels:
##  s1, s2, s3, s4, s5, s6, ...
## 
## Rooted; includes branch lengths.
## 
## $dat 
## # A tibble: 40 x 3
##        X     X1      X2
##    <int>  <dbl>   <dbl>
##  1     1 -0.543 -1.91  
##  2     2  1.21   1.18  
##  3     3  1.16  -1.66  
##  4     4  0.700 -0.464 
##  5     5  1.59  -1.12  
##  6     6  0.558 -0.751 
##  7     7 -1.28   2.09  
##  8     8 -0.573  0.0174
##  9     9 -1.22  -1.29  
## 10    10 -0.473 -1.64  
## #  with 30 more rows
…
## Discrete traits:  D2 
## The following traits have missing values:  
## These taxa were dropped from the tree: s51, s52, s53, s54, s55, s56, s57, s58, s59, s60 
## These taxa were dropped from the data: s41, s42, s43, s44, s45, s46, s47, s48, s49, s50 
## $phy 
## 
## Phylogenetic tree with 40 tips and 39 internal nodes.
## 
## Tip labels:
##  s1, s2, s3, s4, s5, s6, ...
## 
## Rooted; includes branch lengths.
## 
## $dat 
## # A tibble: 40 x 3
##        X     X3    D2
##    <int>  <dbl> <int>
##  1     1 -0.177     1
##  2     2  0.402     0
##  3     3 -0.732     0
##  4     4  0.830     0
##  5     5 -1.21      0
##  6     6 -1.05      0
##  7     7  1.44      0
##  8     8 -1.02      0
##  9     9  0.412     0
## 10    10 -0.381     1
## #  with 30 more rows
…
td_s4<-select(td, starts_with("D"))
td_s4

## $phy 
## 
## Phylogenetic tree with 40 tips and 39 internal nodes.
## 
## Tip labels:
##  s1, s2, s3, s4, s5, s6, ...
## 
## Rooted; includes branch lengths.
## 
## $dat 
## # A tibble: 40 x 3
##    D1       D2    D3
##    <fct> <int> <dbl>
##  1 World     1   0.3
##  2 Hello     0   2.3
##  3 World     0   2.3
##  4 World     0   0.3
##  5 World     0   0.3
##  6 World     0   0.3
##  7 Hello     0   1.3
##  8 Hello     0   1.3
##  9 World     0   2.3
## 10 Hello     1   1.3
## #  with 30 more rows

td_s5<-select(td, ends_with("1"))
td_s5

## $phy 
## 
## Phylogenetic tree with 40 tips and 39 internal nodes.
## 
## Tip labels:
##  s1, s2, s3, s4, s5, s6, ...
## 
## Rooted; includes branch lengths.
## 
## $dat 
## # A tibble: 40 x 3
##        X1 D1     XNA1
##     <dbl> <fct> <dbl>
##  1 -0.543 World    NA
##  2  1.21  Hello    NA
##  3  1.16  World    NA
##  4  0.700 World    NA
##  5  1.59  World    NA
##  6  0.558 World    NA
##  7 -1.28  Hello    NA
##  8 -0.573 Hello    NA
##  9 -1.22  World    NA
## 10 -0.473 Hello    NA
## #  with 30 more rows

td_s6<-select(td, matches("NA"))
td_s6

## $phy 
## 
## Phylogenetic tree with 40 tips and 39 internal nodes.
## 
## Tip labels:
##  s1, s2, s3, s4, s5, s6, ...
## 
## Rooted; includes branch lengths.
## 
## $dat 
## # A tibble: 40 x 1
##     XNA1
##    <dbl>
##  1    NA
##  2    NA
##  3    NA
##  4    NA
##  5    NA
##  6    NA
##  7    NA
##  8    NA
##  9    NA
## 10    NA
## #  with 30 more rows

td_s7<-select(td, -matches("NA"))
td_s7

## $phy 
## 
## Phylogenetic tree with 40 tips and 39 internal nodes.
## 
## Tip labels:
##  s1, s2, s3, s4, s5, s6, ...
## 
## Rooted; includes branch lengths.
## 
## $dat 
## # A tibble: 40 x 7
##        X     X1      X2     X3 D1       D2    D3
##    <int>  <dbl>   <dbl>  <dbl> <fct> <int> <dbl>
##  1     1 -0.543 -1.91   -0.177 World     1   0.3
##  2     2  1.21   1.18    0.402 Hello     0   2.3
##  3     3  1.16  -1.66   -0.732 World     0   2.3
##  4     4  0.700 -0.464   0.830 World     0   0.3
##  5     5  1.59  -1.12   -1.21  World     0   0.3
##  6     6  0.558 -0.751  -1.05  World     0   0.3
##  7     7 -1.28   2.09    1.44  Hello     0   1.3
##  8     8 -0.573  0.0174 -1.02  Hello     0   1.3
##  9     9 -1.22  -1.29    0.412 World     0   2.3
## 10    10 -0.473 -1.64   -0.381 Hello     1   1.3
## #  with 30 more rows

td_s8<-select(td, -starts_with("X"))
td_s8

## $phy 
## 
## Phylogenetic tree with 40 tips and 39 internal nodes.
## 
## Tip labels:
##  s1, s2, s3, s4, s5, s6, ...
## 
## Rooted; includes branch lengths.
## 
## $dat 
## # A tibble: 40 x 3
##    D1       D2    D3
##    <fct> <int> <dbl>
##  1 World     1   0.3
##  2 Hello     0   2.3
##  3 World     0   2.3
##  4 World     0   0.3
##  5 World     0   0.3
##  6 World     0   0.3
##  7 Hello     0   1.3
##  8 Hello     0   1.3
##  9 World     0   2.3
## 10 Hello     1   1.3
## #  with 30 more rows
…
## Discrete traits:  D1 D2 D1.binary 
## The following traits have missing values: XNA1 
## These taxa were dropped from the tree: s51, s52, s53, s54, s55, s56, s57, s58, s59, s60 
## These taxa were dropped from the data: s41, s42, s43, s44, s45, s46, s47, s48, s49, s50 
## $phy 
## 
## Phylogenetic tree with 40 tips and 39 internal nodes.
## 
## Tip labels:
##  s1, s2, s3, s4, s5, s6, ...
## 
## Rooted; includes branch lengths.
## 
## $dat 
## # A tibble: 40 x 10
##        X     X1      X2     X3 D1       D2    D3  XNA1   Xall D1.binary
##    <int>  <dbl>   <dbl>  <dbl> <fct> <int> <dbl> <dbl>  <dbl>     <dbl>
##  1     1 -0.543 -1.91   -0.177 World     1   0.3    NA -0.878         1
##  2     2  1.21   1.18    0.402 Hello     0   2.3    NA  0.929         0
##  3     3  1.16  -1.66   -0.732 World     0   2.3    NA -0.412         1
##  4     4  0.700 -0.464   0.830 World     0   0.3    NA  0.356         1
##  5     5  1.59  -1.12   -1.21  World     0   0.3    NA -0.246         1
##  6     6  0.558 -0.751  -1.05  World     0   0.3    NA -0.413         1
##  7     7 -1.28   2.09    1.44  Hello     0   1.3    NA  0.751         0
##  8     8 -0.573  0.0174 -1.02  Hello     0   1.3    NA -0.524         0
##  9     9 -1.22  -1.29    0.412 World     0   2.3    NA -0.700         1
## 10    10 -0.473 -1.64   -0.381 Hello     1   1.3    NA -0.832         0
## #  with 30 more rows

td_m1[c("Xall", "D1.binary")]

## # A tibble: 40 x 2
##      Xall D1.binary
##     <dbl>     <dbl>
##  1 -0.878         1
##  2  0.929         0
##  3 -0.412         1
##  4  0.356         1
##  5 -0.246         1
##  6 -0.413         1
##  7  0.751         0
##  8 -0.524         0
##  9 -0.700         1
## 10 -0.832         0
## #  with 30 more rows
…
